<?xml version="1.0" encoding="utf-8"?>
<svg id="Layer_1" style="enable-background:new 0 0 128 128;" width="128px" height="128px" viewBox="0 0 128 128" xmlns="http://www.w3.org/2000/svg">
  <g transform="matrix(6.123233995736766e-17, 1, -1, 6.123233995736766e-17, 128.00000155664142, -0.00000629813318653305)">
    <g>
      <g>
        <path style="fill: none; stroke: rgb(146, 146, 146); stroke-width: 12; stroke-linecap: square; stroke-miterlimit: 10;" d="M 63.185001373291016 84.06099700927734 L 37.82099914550781 109.4229965209961"/>
        <path style="fill: none; stroke: rgb(146, 146, 146); stroke-width: 12; stroke-linecap: square; stroke-miterlimit: 10;" d="M 37.82099914550781 109.4229965209961 L 12.456000328063965 84.06099700927734"/>
      </g>
      <path style="fill: none; stroke: rgb(146, 146, 146); stroke-width: 12; stroke-miterlimit: 10;" d="M 37.82099914550781 109.4229965209961 L 37.82099914550781 9.800999641418457"/>
    </g>
    <g>
      <g>
        <path style="fill: none; stroke: rgb(146, 146, 146); stroke-width: 12; stroke-linecap: square; stroke-miterlimit: 10;" d="M 64.81500244140625 44.24100112915039 L 90.18099975585938 18.87700080871582"/>
        <path style="fill: none; stroke: rgb(146, 146, 146); stroke-width: 12; stroke-linecap: square; stroke-miterlimit: 10;" d="M 90.18099975585938 18.87700080871582 L 115.54399871826172 44.24100112915039"/>
      </g>
      <path style="fill: none; stroke: rgb(146, 146, 146); stroke-width: 12; stroke-miterlimit: 10;" d="M 90.18099975585938 18.87700080871582 L 90.18099975585938 118.1989974975586"/>
    </g>
  </g>
</svg>